<?php

namespace App\Http\Controllers;

use Illuminate\Http\Request;

class HomeController extends Controller
{
    // /**
    //  * Create a new controller instance.
    //  *
    //  * @return void
    //  */
    // public function __construct()
    // {
    //     $this->middleware('auth');
    // }

    /**
     * Show the application dashboard.
     *
     * @return \Illuminate\Http\Response
     */
    public function index()
    {
        return view('home');
    }

    public function invoice()
    {
        $data['page']['title'] = 'Invoice';

        return view('invoice', $data);
    }

    public function orderSheet()
    {
        $data['page']['title'] = 'Order Sheet';

        return view('order_sheet', $data);
    }
}

