<?xml version="1.0" encoding="iso-8859-1"?>
<!-- Generator: Adobe Illustrator 19.0.0, SVG Export Plug-In . SVG Version: 6.00 Build 0)  -->
<svg version="1.1" id="Capa_1" xmlns="http://www.w3.org/2000/svg" xmlns:xlink="http://www.w3.org/1999/xlink" x="0px" y="0px"
	 viewBox="0 0 512 512" style="enable-background:new 0 0 512 512;" xml:space="preserve">
<g>
	<g>
		<path d="M410.323,185.495L357.324,0c-9.102,0-194.914,0-202.629,0l-52.999,185.496c-27.596,96.588,38.566,195.209,139.313,204.79
			V482h-90v30h210v-30h-90v-91.716C372.179,380.656,437.786,281.619,410.323,185.495z M251.821,30h28.377l-26.35,79.051
			l28.91,28.911l-5.858,11.716l-48.729-48.729L251.821,30z M256.556,360.999L256.009,361l-0.558-0.001
			c-86.278-0.347-148.887-83.339-124.91-167.262L177.324,30h42.874l-26.35,79.051l62.162,62.162v87.328l63.251-126.503
			l-31.09-31.089L311.821,30h22.874l46.782,163.737C405.467,277.702,342.768,360.652,256.556,360.999z"/>
	</g>
</g>
<g>
</g>
<g>
</g>
<g>
</g>
<g>
</g>
<g>
</g>
<g>
</g>
<g>
</g>
<g>
</g>
<g>
</g>
<g>
</g>
<g>
</g>
<g>
</g>
<g>
</g>
<g>
</g>
<g>
</g>
</svg>
