<?xml version="1.0" encoding="utf-8"?>
<!-- Generator: Adobe Illustrator 22.1.0, SVG Export Plug-In . SVG Version: 6.00 Build 0)  -->
<svg version="1.1" id="Capa_1" xmlns="http://www.w3.org/2000/svg" xmlns:xlink="http://www.w3.org/1999/xlink" x="0px" y="0px"
	 viewBox="0 0 512 512" style="enable-background:new 0 0 512 512;" xml:space="preserve">
<style type="text/css">
	.st0{fill:#D1D1D1;}
</style>
<g>
	<g>
		<path class="st0" d="M410.3,185.5L357.3,0c-9.1,0-194.9,0-202.6,0l-53,185.5C74.1,282.1,140.3,380.7,241,390.3V482h-90v30h210v-30
			h-90v-91.7C372.2,380.7,437.8,281.6,410.3,185.5z M251.8,30h28.4l-26.4,79.1l28.9,28.9l-5.9,11.7L228.1,101L251.8,30z M256.6,361
			h-0.5h-0.6c-86.3-0.3-148.9-83.3-124.9-167.3L177.3,30h42.9l-26.4,79.1l62.2,62.2v87.3L319.3,132l-31.1-31.1L311.8,30h22.9
			l46.8,163.7C405.5,277.7,342.8,360.7,256.6,361z"/>
	</g>
</g>
</svg>
